{
  "count": 2583,
  "next": "http://127.0.0.1:10550/v1/list?page=4&page_size=10",
  "previous": "http://127.0.0.1:10550/v1/list?page=2&page_size=10",
  "results": [{
    "id": 2554,
    "title": "勇者企划 Endro～！(2019)1-12话 全集",
    "description": "人们与怪物共存的剑与魔法的大陆“纳拉尔岛”。那里曾经存在恐怖的“魔王”。很久很久以前，初代勇者打倒了出现在纳拉尔岛的魔王——从那以后，魔王在各种时代不断地复活，同时与之对抗的勇者也再度出现……少女们为了打倒不知何时出现的魔王，而在冒险者学校就读。?",
    "image": "http://sinacloud.net/fishtim/img/勇者企划yy1.jpg",
    "year": [{
      "year": 2019,
      "article_id": 2554
    }],
    "update": "2020-03-27T10:08:09.808221"
  }, {
    "id": 2553,
    "title": "你喜欢普攻是全体连击的妈妈吗？Okaa-san Online (2019)1-12话 全集",
    "description": "“小真，接下来就和妈妈一起好好冒险吧”",
    "image": "http://sinacloud.net/fishtim/img/普通攻击是全体二连击yy1.jpg",
    "year": [{
      "year": 2019,
      "article_id": 2553
    }],
    "update": "2020-03-27T10:08:09.781202"
  }, {
    "id": 2552,
    "title": "五等分的花嫁  Go-Toubun no Hanayome (2019)1-12话 全集",
    "description": "一直过着贫困生活的高中二年级学生·上杉风太郎，找到了一份条件非常好的家庭教师兼职。然而，要教导的学生居然是同级生！而且还是五胞胎！！虽然都是美少女，但同时也是“将要留级”、“讨厌学习”的问题学生们！最开始的任务就是要取得这些女孩们的信任……！？每天都热闹喧嚣！",
    "image": "http://sinacloud.net/fishtim/img/五等分的花嫁yy1.jpg",
    "year": [{
      "year": 2019,
      "article_id": 2552
    }],
    "update": "2020-03-27T10:08:09.750888"
  }, {
    "id": 2551,
    "title": "临死！！江古田 Rinshi!! Ekoda-chan (2019)1-12话 全集",
    "description": "在家中总是不穿衣服的主人公江古田是一名自由职业者，她白天时是派遣员工，偶尔也会接模特儿的工作。有着极度开放观念的江古田与周遭朋友之间发生了许多有趣的日常故事。",
    "image": "http://sinacloud.net/fishtim/img/江古田yy1.jpg",
    "year": [{
      "year": 2019,
      "article_id": 2551
    }],
    "update": "2020-03-27T10:08:09.723937"
  }, {
    "id": 2550,
    "title": "W’z  (2019)1-13话 全集",
    "description": "荒城幸也，大约14岁。",
    "image": "http://sinacloud.net/fishtim/img/Wzyy1.jpg",
    "year": [{
      "year": 2019,
      "article_id": 2550
    }],
    "update": "2020-03-27T10:08:09.697829"
  }, {
    "id": 2549,
    "title": "龙王的工作! Ryuuou no Oshigoto! (2018)1-12话 全集",
    "description": "一打开玄关大门，有个小学女生就在那里——",
    "image": "http://sinacloud.net/fishtim/img/龙王的工作yy1.jpg",
    "year": [{
      "year": 2018,
      "article_id": 2549
    }],
    "update": "2020-03-27T10:08:09.665960"
  }, {
    "id": 2548,
    "title": "黑社会的超能力女儿 Hinamatsuri 极道超女 (2018)1-12话  全集",
    "description": "支持着芦川组的年轻智力型黑道新田义史，过着被喜欢的壶所包围的悠然自得单身生活。但某一天，随着装在神秘物体里的少女雏来到他家，他的生活为之一变。他被能使用念动力的雏所胁迫，迫不得已开始和她同居！",
    "image": "http://sinacloud.net/fishtim/img/黑社会的超能力女儿yy1.jpg",
    "year": [{
      "year": 2018,
      "article_id": 2548
    }],
    "update": "2020-03-27T10:08:09.635914"
  }, {
    "id": 2547,
    "title": "黃金神威 Golden Kamuy (2018)1-24话  全集",
    "description": "明治时代后期，有着“不死之身杉元”外号的日俄战争英雄杉元佐一，因故需要筹措金钱而来到了北海道。他无意间听说阿伊努人手中的财宝被抢夺的传闻。据说宝藏秘密被刻在24名越狱犯身上的刺青，寻宝过程之中，杉元遭受到棕熊的袭击，并且被一名阿伊努人少女“阿席莉帕”所救。紧接着，有如呼应杉元的行动一般，从以前就一直以宝藏为目标在暗中行动的“第七师团”以及背负刺青的越狱犯们的行动也开始浮上台面。这场为求一夕致富的生存竞赛，究竟会如何发展……！？",
    "image": "http://sinacloud.net/fishtim/img/黃金神威yy1.jpg",
    "year": [{
      "year": 2018,
      "article_id": 2547
    }],
    "update": "2020-03-27T10:08:09.611433"
  }, {
    "id": 2546,
    "title": "魔法律事务所 Muhyo to Roji no Mahouritsu Soudan Jimusho (2018)1-12话 全集",
    "description": "拥有对对人类加以危害、造成犯罪的恶灵做出判决，",
    "image": "http://sinacloud.net/fishtim/img/魔法律事务所yy1.jpg",
    "year": [{
      "year": 2018,
      "article_id": 2546
    }],
    "update": "2020-03-27T10:08:09.584829"
  }, {
    "id": 2545,
    "title": "魔法少女网站 Mahou Shoujo Site (2018)1-12话 全集",
    "description": "似乎那个网站只会与不幸的人相遇。所以她们才被选中了——",
    "image": "http://sinacloud.net/fishtim/img/魔法少女網站yy1.jpg",
    "year": [{
      "year": 2018,
      "article_id": 2545
    }],
    "update": "2020-03-27T10:08:09.556491"
  }]
}
